Problem Set 1 (ANSWER KEY)
…
df <- read_rds('https://github.com/rweldzius/PSC7000_F2024/raw/main/Data/sc_debt.Rds') # Load the dataset directly from github

Question 1 [0.5 points]

Which school has the lowest admission rate
(adm_rate) and which state is it in
(stabbr)?

df %>% 
  arrange(adm_rate) %>% # Arrange by the admission rate
  select(instnm,adm_rate,stabbr) # Select the school name, the admission rate, and the state

## # A tibble: 2,546 × 3
##    instnm                                      adm_rate stabbr
##    <chr>                                          <dbl> <chr> 
##  1 Saint Elizabeth College of Nursing            0      NY    
##  2 Yeshivat Hechal Shemuel                       0      NY    
##  3 Hampshire College                             0.0197 MA    
##  4 Curtis Institute of Music                     0.0393 PA    
##  5 Stanford University                           0.0434 CA    
##  6 Harvard University                            0.0464 MA    
##  7 Pacific Oaks College                          0.0511 CA    
##  8 Columbia University in the City of New York   0.0545 NY    
##  9 Princeton University                          0.0578 NJ    
## 10 Yale University                               0.0608 CT    
## # ℹ 2,536 more rows
There are two schools with the lowest admissions rate: St. Elizabeth
College of Nursing and Yeshivat Hechal Shemuel. They are both in New
York, and have an admissions rate of 0%. Assuming that this is an error
in the data (since how can a school not admit any students?), the lowest
non-zero admissions is for Hampshire College in Massachusetts.

Which are the top 10 schools by average SAT score
(sat_avg)?

df %>%
  arrange(desc(sat_avg)) %>% # arrange by SAT scores in descending order
  select(instnm,sat_avg) %>% # Select the school name and SAT score
  print(n=12) # Print the first 12 rows (hint: there is a tie)

## # A tibble: 2,546 × 2
##    instnm                                 sat_avg
##    <chr>                                    <int>
##  1 California Institute of Technology        1557
##  2 Massachusetts Institute of Technology     1547
##  3 University of Chicago                     1528
##  4 Harvey Mudd College                       1526
##  5 Duke University                           1522
##  6 Franklin W Olin College of Engineering    1522
##  7 Washington University in St Louis         1520
##  8 Rice University                           1520
##  9 Yale University                           1517
## 10 Harvard University                        1517
## 11 Princeton University                      1517
## 12 Vanderbilt University                     1515
## # ℹ 2,534 more rows
…
df <- df %>% # Use the object assignment operator to overwrite the df object
  mutate(adm_rate_pct = adm_rate*100) # Create the new variable adm_rate_pct

Calculate the average SAT score and median earnings of recent
graduates by state.

df %>%
  group_by(stabbr) %>% # Calculate state-by-state with group_by()
  summarise(sat_avg = mean(sat_avg,na.rm = T), # Summarise the average SAT
            earn_avg = mean(md_earn_wne_p6,na.rm = T)) # Summarise the average earnings

## # A tibble: 51 × 3
##    stabbr sat_avg earn_avg
##    <chr>    <dbl>    <dbl>
##  1 AK       1121    33300 
##  2 AL       1123.   28082.
##  3 AR       1141.   30452.
##  4 AZ       1147.   27613.
##  5 CA       1183.   33017.
##  6 CO       1132.   33955.
##  7 CT       1194.   35994.
##  8 DC       1262    41325 
##  9 DE       1043    32443.
## 10 FL       1142.   30318.
## # ℹ 41 more rows
…
