Multivariate Analysis
…
---

# Two-Way Conditional Means

- Or we could add `AGE10` to the `group_by`

``` r
MI_final_small %>%
  group_by(SEX, AGE10) %>%
  summarize(PctTrump = mean(TrumpVoter),.groups = 'drop') %>%
  mutate(PctTrump = round(PctTrump, digits =2))
```

```
## # A tibble: 22 × 3
##      SEX AGE10 PctTrump
##    <dbl> <dbl>    <dbl>
##  1     1     1     0.44
##  2     1     2     0.42
##  3     1     3     0.42
##  4     1     4     0.24
##  5     1     5     0.42
##  6     1     6     0.58
##  7     1     7     0.54
##  8     1     8     0.44
##  9     1     9     0.39
## 10     1    10     0.43
## # ℹ 12 more rows
```
…
---

# `gather()`

``` r
MI_final_small %>%
  group_by(SEX, AGE10) %>%
  summarize(PctTrump = mean(TrumpVoter),.groups = 'drop') %>%
  spread(key = SEX,value = PctTrump,fill = NA) %>%
  rename(Male = `1`,Female = `2`) %>%
* gather(SEX,PctTrump,-AGE10)
```

```
## # A tibble: 22 × 3
##    AGE10 SEX   PctTrump
##    <dbl> <chr>    <dbl>
##  1     1 Male     0.438
##  2     2 Male     0.417
##  3     3 Male     0.423
##  4     4 Male     0.241
##  5     5 Male     0.419
##  6     6 Male     0.583
##  7     7 Male     0.537
##  8     8 Male     0.443
##  9     9 Male     0.395
## 10    10 Male     0.425
## # ℹ 12 more rows
```
…
# Dates and More Dimensions

--

- To test the .blue[timing of polls theory], let's look at how predicted support varies over time

--

``` r
poll %>%
  select(StartDate,EndDate,DaysinField)
```

```
## # A tibble: 528 × 3
##    StartDate  EndDate   DaysinField
##    <chr>      <chr>           <dbl>
##  1 10/31/2020 11/2/2020           3
##  2 10/31/2020 11/2/2020           3
##  3 10/29/2020 11/2/2020           5
##  4 11/1/2020  11/1/2020           1
##  5 11/1/2020  11/1/2020           1
##  6 10/30/2020 11/1/2020           3
##  7 10/31/2020 11/2/2020           3
##  8 10/30/2020 11/1/2020           3
##  9 10/29/2020 11/1/2020           4
## 10 10/29/2020 11/1/2020           4
## # ℹ 518 more rows
```
…
---

# Looking at data

``` r
stateProbs
```

```
## # A tibble: 50 × 6
##    StateName   State BidenProb1 BidenProb2 BidenProb3    EV
##    <chr>       <chr>      <dbl>      <dbl>      <dbl> <dbl>
##  1 Alabama     AL         0          0.389      0.407     9
##  2 Alaska      AK         0          0.442      0.466     3
##  3 Arizona     AZ         0.840      0.484      0.519    11
##  4 Arkansas    AR         0          0.381      0.395     6
##  5 California  CA         1          0.618      0.661    55
##  6 Colorado    CO         1          0.534      0.571     9
##  7 Connecticut CT         1          0.584      0.631     7
##  8 Delaware    DE         1          0.603      0.627     3
##  9 Florida     FL         0.798      0.486      0.517    29
## 10 Georgia     GA         0.548      0.474      0.504    16
## # ℹ 40 more rows
```
…
