Conditional Relationships
…
Because we have already filtered to focus only on Biden and Trump
voters, we don’t actually need both since
PctBiden = 1 - PctTrump and
PctTrump = 1 - PctBiden.

Note that we can have multiple groups. So if we want to group by age
and by sex we can do the following…

MI_final_small %>%
  group_by(SEX, AGE10) %>%
  summarize(PctBiden = mean(BidenVoter)) %>%
  mutate(PctBiden = round(PctBiden, digits =2))

## # A tibble: 22 × 3
## # Groups:   SEX [2]
##      SEX AGE10 PctBiden
##    <dbl> <dbl>    <dbl>
##  1     1     1     0.56
##  2     1     2     0.58
##  3     1     3     0.58
##  4     1     4     0.76
##  5     1     5     0.58
##  6     1     6     0.42
##  7     1     7     0.46
##  8     1     8     0.56
##  9     1     9     0.61
## 10     1    10     0.57
## # ℹ 12 more rows
…
