Confidence and Uncertainty
…
Now I have a dataset that is built up from a bunch of small resamples
from the data, with average personal fouls for Eastern and Western
conference players in each small sample. Let’s see what these look
like.

bsRes

## # A tibble: 2,000 × 3
##    conference mean_pf bsInd
##    <chr>        <dbl> <int>
##  1 East          84.4  1000
##  2 West          86.9  1000
##  3 East          91.5   999
##  4 West          93.2   999
##  5 East         102.    998
##  6 West          94.3   998
##  7 East         112.    997
##  8 West         102.    997
##  9 East         113.    996
## 10 West          94.5   996
## # ℹ 1,990 more rows
…
So What? Using Percentiles of the Resampled Distribution

Now we can make some statements about uncertainty. Based on this, we
can pretend to be all-powerful voyager across universes, and conclude
that Eastern conference players commit more personal fouls.

The easiest way to do this is just to create a new variable that
indicates whether the Eastern conference players had more personal fouls
than the Western conference players in a given random sample. But
currently, our data is organized in the “long” format, right?

bsRes

## # A tibble: 2,000 × 3
##    conference mean_pf bsInd
##    <chr>        <dbl> <int>
##  1 East          84.4  1000
##  2 West          86.9  1000
##  3 East          91.5   999
##  4 West          93.2   999
##  5 East         102.    998
##  6 West          94.3   998
##  7 East         112.    997
##  8 West         102.    997
##  9 East         113.    996
## 10 West          94.5   996
## # ℹ 1,990 more rows

We want to convert it to the “wide” format, which means that each row
is a random sample simulation, and we have one column for the Eastern
conference personal fouls, and one column for the Western conference
personal fouls.

Let’s create this using either spread() or
pivot_wider().

# Spread approach
bsRes %>%
  spread(conference,mean_pf)

## # A tibble: 1,000 × 3
##    bsInd  East  West
##    <int> <dbl> <dbl>
##  1     1 112.   92.3
##  2     2 110.   92.5
##  3     3  85.9 104. 
##  4     4 103.   93.2
##  5     5  93.5  79.5
##  6     6  94.2  98.0
##  7     7  93.8  94.1
##  8     8  94.6  89.9
##  9     9  91.8  79.8
## 10    10  92.0 101. 
## # ℹ 990 more rows

# Pivot-wider approach
bsRes %>%
  pivot_wider(names_from = 'conference',values_from = 'mean_pf')

## # A tibble: 1,000 × 3
##    bsInd  East  West
##    <int> <dbl> <dbl>
##  1  1000  84.4  86.9
##  2   999  91.5  93.2
##  3   998 102.   94.3
##  4   997 112.  102. 
##  5   996 113.   94.5
##  6   995 117.   84.6
##  7   994  92.5  92.3
##  8   993 106.   98.1
##  9   992 101.   85.5
## 10   991  97.2  99.7
## # ℹ 990 more rows

With the data organized in “wide” format, it is now trivial to
calculate whether the Eastern players had more personal fouls than the
Western players.

bsRes %>%
  pivot_wider(names_from = 'conference',values_from = 'mean_pf') %>%
  mutate(diff = East - West,
         EastMore = diff > 0)

## # A tibble: 1,000 × 5
##    bsInd  East  West   diff EastMore
##    <int> <dbl> <dbl>  <dbl> <lgl>   
##  1  1000  84.4  86.9 -2.47  FALSE   
##  2   999  91.5  93.2 -1.73  FALSE   
##  3   998 102.   94.3  7.53  TRUE    
##  4   997 112.  102.   9.75  TRUE    
##  5   996 113.   94.5 18.3   TRUE    
##  6   995 117.   84.6 32.8   TRUE    
##  7   994  92.5  92.3  0.235 TRUE    
##  8   993 106.   98.1  7.37  TRUE    
##  9   992 101.   85.5 15.9   TRUE    
## 10   991  97.2  99.7 -2.44  FALSE   
## # ℹ 990 more rows
…
The Data

The data for today is game by team summary data for every game played
from 2017 to 2019. Make sure to download the data (game_summary.Rds)
and save to your data folder!

gms<-read_rds("https://github.com/rweldzius/PSC7000_F2024/raw/main/Data/game_summary.Rds")
gms

## # A tibble: 7,380 × 16
##      idGame yearSeason dateGame   idTeam nameTeam locationGame   tov   pts  treb
##       <dbl>      <int> <date>      <dbl> <chr>    <chr>        <dbl> <dbl> <dbl>
##  1 21600001       2017 2016-10-25 1.61e9 Clevela… H               14   117    51
##  2 21600001       2017 2016-10-25 1.61e9 New Yor… A               18    88    42
##  3 21600002       2017 2016-10-25 1.61e9 Portlan… H               12   113    34
##  4 21600002       2017 2016-10-25 1.61e9 Utah Ja… A               11   104    31
##  5 21600003       2017 2016-10-25 1.61e9 Golden … H               16   100    35
##  6 21600003       2017 2016-10-25 1.61e9 San Ant… A               13   129    55
##  7 21600004       2017 2016-10-26 1.61e9 Miami H… A               10   108    52
##  8 21600004       2017 2016-10-26 1.61e9 Orlando… H               11    96    45
##  9 21600005       2017 2016-10-26 1.61e9 Dallas … A               15   121    49
## 10 21600005       2017 2016-10-26 1.61e9 Indiana… H               16   130    52
## # ℹ 7,370 more rows
## # ℹ 7 more variables: oreb <dbl>, pctFG <dbl>, pctFT <dbl>, teamrest <dbl>,
## #   second_game <lgl>, isWin <lgl>, ft_80 <dbl>
…
Now I have a dataset that is built up from a bunch of small resamples
from the data, with average turnovers for winners and losers in each
small sample. Let’s see what these look like.

gms_tov_rs

## # A tibble: 2,000 × 2
##    isWin mean_tov
##    <lgl>    <dbl>
##  1 FALSE     14.5
##  2 TRUE      13.7
##  3 FALSE     13.7
##  4 TRUE      12.8
##  5 FALSE     14.4
##  6 TRUE      12.3
##  7 FALSE     13.6
##  8 TRUE      13.2
##  9 FALSE     13.6
## 10 TRUE      11.4
## # ℹ 1,990 more rows
…
## [1] 53000

We have a huge dataset of 100 simulated seasons which we can now run
our analysis on. First, let’s compare free throw shooting in each
simulated season.

bsSeasons %>%
  filter(grepl('Tennessee|^Virginia',org)) %>% # Focus only on the schools of interest
  group_by(bsSeasonNumber,org) %>% # Group by the simulated season and the organization
  summarise(mean_ftp = mean(pctFT),.groups = 'drop') # Calculate average pctFT

## # A tibble: 188 × 3
##    bsSeasonNumber org       mean_ftp
##             <int> <fct>        <dbl>
##  1              1 Tennessee    0.866
##  2              1 Virginia     0.785
##  3              2 Tennessee    0.866
##  4              2 Virginia     0.799
##  5              3 Tennessee    0.816
##  6              3 Virginia     0.827
##  7              4 Tennessee    0.847
##  8              4 Virginia     0.852
##  9              5 Tennessee    0.852
## 10              5 Virginia     0.836
## # ℹ 178 more rows
…
But remember the question of interest – we want to calculate the
difference in free throw percentage. To do this, we can use the
spread() command to create one column for Tennessee and one
column for Virginia

bsSeasons %>%
  filter(grepl('Tennessee|^Virginia',org)) %>%
  group_by(bsSeasonNumber,org) %>%
  summarise(mean_ftp = mean(pctFT),.groups = 'drop') %>%
  spread(org,mean_ftp) # Create two columns one for each school

## # A tibble: 100 × 3
##    bsSeasonNumber Tennessee Virginia
##             <int>     <dbl>    <dbl>
##  1              1     0.866    0.785
##  2              2     0.866    0.799
##  3              3     0.816    0.827
##  4              4     0.847    0.852
##  5              5     0.852    0.836
##  6              6     0.866    0.771
##  7              7     0.861   NA    
##  8              8     0.842   NA    
##  9              9     0.863    0.836
## 10             10     0.833    0.743
## # ℹ 90 more rows
Interestingly, in seasons 7 and 8 we **don’t have measures of
Virginia free throw shooting! This is because we just happened not to
sample any players from Virginia in these simulated seasons! We can drop
these missing values and then use mutate() to create the
difference between Virginia and Tennessee.

bsSeasons %>%
  filter(grepl('Tennessee|^Virginia',org)) %>%
  group_by(bsSeasonNumber,org) %>%
  summarise(mean_ftp = mean(pctFT),.groups = 'drop') %>%
  spread(org,mean_ftp) %>%
  drop_na() %>% # Drop any rows with missing data in any column
  mutate(TNDiff = Tennessee - Virginia) # Calculate the difference in free throw shooting between TN and VA

## # A tibble: 88 × 4
##    bsSeasonNumber Tennessee Virginia   TNDiff
##             <int>     <dbl>    <dbl>    <dbl>
##  1              1     0.866    0.785  0.0810 
##  2              2     0.866    0.799  0.0670 
##  3              3     0.816    0.827 -0.0105 
##  4              4     0.847    0.852 -0.00525
##  5              5     0.852    0.836  0.0163 
##  6              6     0.866    0.771  0.095  
##  7              9     0.863    0.836  0.0280 
##  8             10     0.833    0.743  0.09   
##  9             11     0.839    0.878 -0.0389 
## 10             12     0.842    0.928 -0.0857 
## # ℹ 78 more rows
…
